<?xml version="1.0" encoding="UTF-8" standalone="no"?>
<!-- Created with Inkscape (http://www.inkscape.org/) -->

<svg
   xmlns:dc="http://purl.org/dc/elements/1.1/"
   xmlns:cc="http://creativecommons.org/ns#"
   xmlns:rdf="http://www.w3.org/1999/02/22-rdf-syntax-ns#"
   xmlns:svg="http://www.w3.org/2000/svg"
   xmlns="http://www.w3.org/2000/svg"
   xmlns:xlink="http://www.w3.org/1999/xlink"
   xmlns:sodipodi="http://sodipodi.sourceforge.net/DTD/sodipodi-0.dtd"
   xmlns:inkscape="http://www.inkscape.org/namespaces/inkscape"
   width="1200"
   height="800"
   viewBox="0 0 1200 800.00016"
   id="svg4233"
   version="1.1"
   inkscape:version="0.91 r13725"
   sodipodi:docname="weedog_Ubuntu_tinylinuxinfo.svg"
   inkscape:export-filename="/mnt/live/mnt/sda3/weedog_builds/weedoglinux/graphics/weedog_Ubuntu_desktopbg_default.png"
   inkscape:export-xdpi="88.800003"
   inkscape:export-ydpi="88.800003">
  <defs
     id="defs4235">
    <inkscape:perspective
       id="perspective72"
       inkscape:persp3d-origin="182.50002 : 91.666681 : 1"
       inkscape:vp_z="364.99999 : 137.50004 : 1"
       inkscape:vp_y="0 : 1000.0001 : 0"
       inkscape:vp_x="0 : 137.50003 : 1"
       sodipodi:type="inkscape:persp3d" />
    <linearGradient
       gradientTransform="translate(287,-83)"
       x1="112.49854"
       y1="6.1372099"
       x2="112.49853"
       y2="129.3468"
       id="path1082_2_"
       gradientUnits="userSpaceOnUse">
      <stop
         style="stop-color:#ffffff;stop-opacity:0"
         offset="0"
         id="stop193" />
      <stop
         style="stop-color:#ffffff;stop-opacity:0.27450982;"
         offset="1"
         id="stop195" />
      <midPointStop
         offset="0"
         style="stop-color:#FFFFFF"
         id="midPointStop197" />
      <midPointStop
         offset="0.5"
         style="stop-color:#FFFFFF"
         id="midPointStop199" />
      <midPointStop
         offset="1"
         style="stop-color:#000000"
         id="midPointStop201" />
    </linearGradient>
    <linearGradient
       id="linearGradient3388">
      <stop
         id="stop3390"
         offset="0"
         style="stop-color:#000000;stop-opacity:0;" />
      <stop
         id="stop3392"
         offset="1"
         style="stop-color:#000000;stop-opacity:0.37113401;" />
    </linearGradient>
    <linearGradient
       id="linearGradient4346"
       inkscape:collect="always">
      <stop
         id="stop4348"
         offset="0"
         style="stop-color:#00bdec;stop-opacity:1" />
      <stop
         id="stop4350"
         offset="1"
         style="stop-color:#40bfde;stop-opacity:1" />
    </linearGradient>
    <linearGradient
       gradientUnits="userSpaceOnUse"
       y2="666.97791"
       x2="616.48553"
       y1="634.15063"
       x1="400.6142"
       id="linearGradient4352"
       xlink:href="#linearGradient4346"
       inkscape:collect="always" />
    <linearGradient
       id="linearGradient5323"
       inkscape:collect="always">
      <stop
         id="stop5325"
         offset="0"
         style="stop-color:#6e6e6e;stop-opacity:1" />
      <stop
         id="stop5327"
         offset="1"
         style="stop-color:#4d4d4d;stop-opacity:1" />
    </linearGradient>
    <linearGradient
       gradientUnits="userSpaceOnUse"
       y2="348.96875"
       x2="650.81366"
       y1="238.08237"
       x1="291.83591"
       id="linearGradient5329"
       xlink:href="#linearGradient5323"
       inkscape:collect="always" />
    <linearGradient
       y2="183.9644"
       x2="490.72305"
       y1="237.72447"
       x1="490.72305"
       gradientTransform="matrix(0.6551957,0,0,0.6551957,-113.28394,148.38658)"
       gradientUnits="userSpaceOnUse"
       id="linearGradient2231"
       xlink:href="#linearGradient3388"
       inkscape:collect="always" />
    <linearGradient
       y2="303.14029"
       x2="606.91248"
       y1="104.50665"
       x1="541.33502"
       gradientTransform="matrix(-0.6710118,0,0,0.6709741,706.10281,-117.5032)"
       gradientUnits="userSpaceOnUse"
       id="linearGradient2261"
       xlink:href="#path1082_2_"
       inkscape:collect="always" />
    <linearGradient
       id="linearGradient2461">
      <stop
         style="stop-color:#26a7e8;stop-opacity:1;"
         offset="0"
         id="stop2463" />
      <stop
         style="stop-color:#3ab0ea;stop-opacity:1;"
         offset="1"
         id="stop2465" />
    </linearGradient>
    <linearGradient
       inkscape:collect="always"
       xlink:href="#path1082_2_"
       id="linearGradient2544"
       gradientUnits="userSpaceOnUse"
       gradientTransform="matrix(-0.3937741,0,0,0.393752,357.51969,122.00151)"
       x1="541.33502"
       y1="104.50665"
       x2="606.91248"
       y2="303.14029" />
    <inkscape:perspective
       id="perspective72-8"
       inkscape:persp3d-origin="182.50002 : 91.666681 : 1"
       inkscape:vp_z="364.99999 : 137.50004 : 1"
       inkscape:vp_y="0 : 1000.0001 : 0"
       inkscape:vp_x="0 : 137.50003 : 1"
       sodipodi:type="inkscape:persp3d" />
    <linearGradient
       gradientUnits="userSpaceOnUse"
       y2="666.97791"
       x2="616.48553"
       y1="634.15063"
       x1="400.6142"
       id="linearGradient4483"
       xlink:href="#linearGradient4346"
       inkscape:collect="always" />
    <linearGradient
       gradientUnits="userSpaceOnUse"
       y2="348.96875"
       x2="650.81366"
       y1="238.08237"
       x1="291.83591"
       id="linearGradient4485"
       xlink:href="#linearGradient5323"
       inkscape:collect="always" />
    <linearGradient
       y2="183.9644"
       x2="490.72305"
       y1="237.72447"
       x1="490.72305"
       gradientTransform="matrix(0.6551957,0,0,0.6551957,-113.28394,148.38658)"
       gradientUnits="userSpaceOnUse"
       id="linearGradient4487"
       xlink:href="#linearGradient3388"
       inkscape:collect="always" />
    <linearGradient
       y2="303.14029"
       x2="606.91248"
       y1="104.50665"
       x1="541.33502"
       gradientTransform="matrix(-0.6710118,0,0,0.6709741,706.10281,-117.5032)"
       gradientUnits="userSpaceOnUse"
       id="linearGradient4489"
       xlink:href="#path1082_2_"
       inkscape:collect="always" />
    <linearGradient
       inkscape:collect="always"
       xlink:href="#linearGradient4346"
       id="linearGradient2493"
       gradientUnits="userSpaceOnUse"
       x1="400.6142"
       y1="634.15063"
       x2="616.48553"
       y2="666.97791" />
    <linearGradient
       inkscape:collect="always"
       xlink:href="#linearGradient4346"
       id="linearGradient2467"
       x1="400.6142"
       y1="634.15063"
       x2="616.48553"
       y2="666.97791"
       gradientUnits="userSpaceOnUse" />
    <linearGradient
       inkscape:collect="always"
       xlink:href="#path1082_2_"
       id="linearGradient4493"
       gradientUnits="userSpaceOnUse"
       gradientTransform="matrix(-0.3937741,0,0,0.393752,357.51969,122.00151)"
       x1="541.33502"
       y1="104.50665"
       x2="606.91248"
       y2="303.14029" />
    <linearGradient
       y2="348.96875"
       x2="650.81366"
       y1="238.08237"
       x1="291.83591"
       gradientUnits="userSpaceOnUse"
       id="linearGradient3885"
       xlink:href="#linearGradient5323"
       inkscape:collect="always" />
    <linearGradient
       y2="666.97791"
       x2="616.48553"
       y1="634.15063"
       x1="400.6142"
       gradientUnits="userSpaceOnUse"
       id="linearGradient3887"
       xlink:href="#linearGradient4346"
       inkscape:collect="always" />
    <linearGradient
       y2="348.96875"
       x2="650.81366"
       y1="238.08237"
       x1="291.83591"
       gradientUnits="userSpaceOnUse"
       id="linearGradient3909"
       xlink:href="#linearGradient5323"
       inkscape:collect="always" />
    <linearGradient
       y2="666.97791"
       x2="616.48553"
       y1="634.15063"
       x1="400.6142"
       gradientUnits="userSpaceOnUse"
       id="linearGradient3919"
       xlink:href="#linearGradient4346"
       inkscape:collect="always" />
    <inkscape:perspective
       id="perspective72-84"
       inkscape:persp3d-origin="182.50002 : 91.666681 : 1"
       inkscape:vp_z="364.99999 : 137.50004 : 1"
       inkscape:vp_y="0 : 1000.0001 : 0"
       inkscape:vp_x="0 : 137.50003 : 1"
       sodipodi:type="inkscape:persp3d" />
    <linearGradient
       gradientUnits="userSpaceOnUse"
       y2="666.97791"
       x2="616.48553"
       y1="634.15063"
       x1="400.6142"
       id="linearGradient4584"
       xlink:href="#linearGradient4346"
       inkscape:collect="always" />
    <linearGradient
       gradientUnits="userSpaceOnUse"
       y2="348.96875"
       x2="650.81366"
       y1="238.08237"
       x1="291.83591"
       id="linearGradient4586"
       xlink:href="#linearGradient5323"
       inkscape:collect="always" />
    <linearGradient
       y2="183.9644"
       x2="490.72305"
       y1="237.72447"
       x1="490.72305"
       gradientTransform="matrix(0.6551957,0,0,0.6551957,-113.28394,148.38658)"
       gradientUnits="userSpaceOnUse"
       id="linearGradient4588"
       xlink:href="#linearGradient3388"
       inkscape:collect="always" />
    <linearGradient
       y2="303.14029"
       x2="606.91248"
       y1="104.50665"
       x1="541.33502"
       gradientTransform="matrix(-0.6710118,0,0,0.6709741,706.10281,-117.5032)"
       gradientUnits="userSpaceOnUse"
       id="linearGradient4590"
       xlink:href="#path1082_2_"
       inkscape:collect="always" />
    <linearGradient
       inkscape:collect="always"
       xlink:href="#linearGradient4346"
       id="linearGradient4592"
       gradientUnits="userSpaceOnUse"
       x1="400.6142"
       y1="634.15063"
       x2="616.48553"
       y2="666.97791" />
    <linearGradient
       inkscape:collect="always"
       xlink:href="#linearGradient4346"
       id="linearGradient4594"
       x1="400.6142"
       y1="634.15063"
       x2="616.48553"
       y2="666.97791"
       gradientUnits="userSpaceOnUse" />
    <linearGradient
       inkscape:collect="always"
       xlink:href="#path1082_2_"
       id="linearGradient4596"
       gradientUnits="userSpaceOnUse"
       gradientTransform="matrix(-0.3937741,0,0,0.393752,357.51969,122.00151)"
       x1="541.33502"
       y1="104.50665"
       x2="606.91248"
       y2="303.14029" />
    <linearGradient
       y2="348.96875"
       x2="650.81366"
       y1="238.08237"
       x1="291.83591"
       gradientUnits="userSpaceOnUse"
       id="linearGradient4598"
       xlink:href="#linearGradient5323"
       inkscape:collect="always" />
    <linearGradient
       y2="666.97791"
       x2="616.48553"
       y1="634.15063"
       x1="400.6142"
       gradientUnits="userSpaceOnUse"
       id="linearGradient4600"
       xlink:href="#linearGradient4346"
       inkscape:collect="always" />
    <linearGradient
       y2="348.96875"
       x2="650.81366"
       y1="238.08237"
       x1="291.83591"
       gradientUnits="userSpaceOnUse"
       id="linearGradient4602"
       xlink:href="#linearGradient5323"
       inkscape:collect="always" />
    <linearGradient
       y2="666.97791"
       x2="616.48553"
       y1="634.15063"
       x1="400.6142"
       gradientUnits="userSpaceOnUse"
       id="linearGradient4604"
       xlink:href="#linearGradient4346"
       inkscape:collect="always" />
    <inkscape:perspective
       sodipodi:type="inkscape:persp3d"
       inkscape:vp_x="0 : 137.5 : 1"
       inkscape:vp_y="0 : 1000 : 0"
       inkscape:vp_z="365 : 137.5 : 1"
       inkscape:persp3d-origin="182.5 : 91.666667 : 1"
       id="perspective72-7" />
    <linearGradient
       inkscape:collect="always"
       xlink:href="#linearGradient4346"
       id="linearGradient3466"
       x1="400.6142"
       y1="634.15063"
       x2="616.48553"
       y2="666.97791"
       gradientUnits="userSpaceOnUse" />
    <linearGradient
       inkscape:collect="always"
       xlink:href="#linearGradient5323"
       id="linearGradient3468"
       x1="291.83591"
       y1="238.08237"
       x2="650.81366"
       y2="348.96875"
       gradientUnits="userSpaceOnUse" />
    <linearGradient
       inkscape:collect="always"
       xlink:href="#linearGradient3388"
       id="linearGradient3470"
       gradientUnits="userSpaceOnUse"
       gradientTransform="matrix(0.6551957,0,0,0.6551957,-113.28394,148.38658)"
       x1="490.72305"
       y1="237.72447"
       x2="490.72305"
       y2="183.9644" />
    <linearGradient
       inkscape:collect="always"
       xlink:href="#path1082_2_"
       id="linearGradient3472"
       gradientUnits="userSpaceOnUse"
       gradientTransform="matrix(-0.6710118,0,0,0.6709741,706.10281,-117.5032)"
       x1="541.33502"
       y1="104.50665"
       x2="606.91248"
       y2="303.14029" />
    <linearGradient
       y2="303.14029"
       x2="606.91248"
       y1="104.50665"
       x1="541.33502"
       gradientTransform="matrix(-0.3937741,0,0,0.393752,357.51969,122.00151)"
       gradientUnits="userSpaceOnUse"
       id="linearGradient3474"
       xlink:href="#path1082_2_"
       inkscape:collect="always" />
    <inkscape:perspective
       sodipodi:type="inkscape:persp3d"
       inkscape:vp_x="0 : 137.5 : 1"
       inkscape:vp_y="0 : 1000 : 0"
       inkscape:vp_z="365 : 137.5 : 1"
       inkscape:persp3d-origin="182.5 : 91.666667 : 1"
       id="perspective72-8-9" />
    <linearGradient
       inkscape:collect="always"
       xlink:href="#linearGradient4346"
       id="linearGradient3477"
       x1="400.6142"
       y1="634.15063"
       x2="616.48553"
       y2="666.97791"
       gradientUnits="userSpaceOnUse" />
    <linearGradient
       inkscape:collect="always"
       xlink:href="#linearGradient5323"
       id="linearGradient3479"
       x1="291.83591"
       y1="238.08237"
       x2="650.81366"
       y2="348.96875"
       gradientUnits="userSpaceOnUse" />
    <linearGradient
       inkscape:collect="always"
       xlink:href="#linearGradient3388"
       id="linearGradient3481"
       gradientUnits="userSpaceOnUse"
       gradientTransform="matrix(0.6551957,0,0,0.6551957,-113.28394,148.38658)"
       x1="490.72305"
       y1="237.72447"
       x2="490.72305"
       y2="183.9644" />
    <linearGradient
       inkscape:collect="always"
       xlink:href="#path1082_2_"
       id="linearGradient3483"
       gradientUnits="userSpaceOnUse"
       gradientTransform="matrix(-0.6710118,0,0,0.6709741,706.10281,-117.5032)"
       x1="541.33502"
       y1="104.50665"
       x2="606.91248"
       y2="303.14029" />
    <linearGradient
       y2="666.97791"
       x2="616.48553"
       y1="634.15063"
       x1="400.6142"
       gradientUnits="userSpaceOnUse"
       id="linearGradient3485"
       xlink:href="#linearGradient4346"
       inkscape:collect="always" />
    <linearGradient
       gradientUnits="userSpaceOnUse"
       y2="666.97791"
       x2="616.48553"
       y1="634.15063"
       x1="400.6142"
       id="linearGradient3487"
       xlink:href="#linearGradient4346"
       inkscape:collect="always" />
    <linearGradient
       y2="303.14029"
       x2="606.91248"
       y1="104.50665"
       x1="541.33502"
       gradientTransform="matrix(-0.3937741,0,0,0.393752,357.51969,122.00151)"
       gradientUnits="userSpaceOnUse"
       id="linearGradient3489"
       xlink:href="#path1082_2_"
       inkscape:collect="always" />
    <linearGradient
       inkscape:collect="always"
       xlink:href="#linearGradient5323"
       id="linearGradient3491"
       gradientUnits="userSpaceOnUse"
       x1="291.83591"
       y1="238.08237"
       x2="650.81366"
       y2="348.96875" />
    <linearGradient
       inkscape:collect="always"
       xlink:href="#linearGradient4346"
       id="linearGradient3493"
       gradientUnits="userSpaceOnUse"
       x1="400.6142"
       y1="634.15063"
       x2="616.48553"
       y2="666.97791" />
    <linearGradient
       inkscape:collect="always"
       xlink:href="#linearGradient5323"
       id="linearGradient3495"
       gradientUnits="userSpaceOnUse"
       x1="291.83591"
       y1="238.08237"
       x2="650.81366"
       y2="348.96875" />
    <linearGradient
       inkscape:collect="always"
       xlink:href="#linearGradient4346"
       id="linearGradient3497"
       gradientUnits="userSpaceOnUse"
       x1="400.6142"
       y1="634.15063"
       x2="616.48553"
       y2="666.97791" />
    <inkscape:perspective
       sodipodi:type="inkscape:persp3d"
       inkscape:vp_x="0 : 137.5 : 1"
       inkscape:vp_y="0 : 1000 : 0"
       inkscape:vp_z="365 : 137.5 : 1"
       inkscape:persp3d-origin="182.5 : 91.666667 : 1"
       id="perspective72-84-3" />
    <linearGradient
       inkscape:collect="always"
       xlink:href="#linearGradient4346"
       id="linearGradient3500"
       x1="400.6142"
       y1="634.15063"
       x2="616.48553"
       y2="666.97791"
       gradientUnits="userSpaceOnUse" />
    <linearGradient
       inkscape:collect="always"
       xlink:href="#linearGradient5323"
       id="linearGradient3502"
       x1="291.83591"
       y1="238.08237"
       x2="650.81366"
       y2="348.96875"
       gradientUnits="userSpaceOnUse" />
    <linearGradient
       inkscape:collect="always"
       xlink:href="#linearGradient3388"
       id="linearGradient3504"
       gradientUnits="userSpaceOnUse"
       gradientTransform="matrix(0.6551957,0,0,0.6551957,-113.28394,148.38658)"
       x1="490.72305"
       y1="237.72447"
       x2="490.72305"
       y2="183.9644" />
    <linearGradient
       inkscape:collect="always"
       xlink:href="#path1082_2_"
       id="linearGradient3506"
       gradientUnits="userSpaceOnUse"
       gradientTransform="matrix(-0.6710118,0,0,0.6709741,706.10281,-117.5032)"
       x1="541.33502"
       y1="104.50665"
       x2="606.91248"
       y2="303.14029" />
    <linearGradient
       y2="666.97791"
       x2="616.48553"
       y1="634.15063"
       x1="400.6142"
       gradientUnits="userSpaceOnUse"
       id="linearGradient3508"
       xlink:href="#linearGradient4346"
       inkscape:collect="always" />
    <linearGradient
       gradientUnits="userSpaceOnUse"
       y2="666.97791"
       x2="616.48553"
       y1="634.15063"
       x1="400.6142"
       id="linearGradient3510"
       xlink:href="#linearGradient4346"
       inkscape:collect="always" />
    <linearGradient
       y2="303.14029"
       x2="606.91248"
       y1="104.50665"
       x1="541.33502"
       gradientTransform="matrix(-0.3937741,0,0,0.393752,357.51969,122.00151)"
       gradientUnits="userSpaceOnUse"
       id="linearGradient3512"
       xlink:href="#path1082_2_"
       inkscape:collect="always" />
    <linearGradient
       inkscape:collect="always"
       xlink:href="#linearGradient5323"
       id="linearGradient3514"
       gradientUnits="userSpaceOnUse"
       x1="291.83591"
       y1="238.08237"
       x2="650.81366"
       y2="348.96875" />
    <linearGradient
       inkscape:collect="always"
       xlink:href="#linearGradient4346"
       id="linearGradient3516"
       gradientUnits="userSpaceOnUse"
       x1="400.6142"
       y1="634.15063"
       x2="616.48553"
       y2="666.97791" />
    <linearGradient
       inkscape:collect="always"
       xlink:href="#linearGradient5323"
       id="linearGradient3518"
       gradientUnits="userSpaceOnUse"
       x1="291.83591"
       y1="238.08237"
       x2="650.81366"
       y2="348.96875" />
    <linearGradient
       inkscape:collect="always"
       xlink:href="#linearGradient4346"
       id="linearGradient3520"
       gradientUnits="userSpaceOnUse"
       x1="400.6142"
       y1="634.15063"
       x2="616.48553"
       y2="666.97791" />
  </defs>
  <sodipodi:namedview
     id="base"
     pagecolor="#ffffff"
     bordercolor="#666666"
     borderopacity="1"
     inkscape:pageopacity="0"
     inkscape:pageshadow="2"
     inkscape:zoom="0.48365849"
     inkscape:cx="419.42678"
     inkscape:cy="487.06629"
     inkscape:document-units="px"
     inkscape:current-layer="layer2"
     showgrid="true"
     inkscape:snap-nodes="true"
     inkscape:object-nodes="true"
     inkscape:snap-bbox="true"
     inkscape:bbox-nodes="false"
     inkscape:snap-global="true"
     inkscape:window-width="1280"
     inkscape:window-height="744"
     inkscape:window-x="0"
     inkscape:window-y="0"
     inkscape:window-maximized="1"
     inkscape:snap-others="true"
     inkscape:snap-smooth-nodes="false"
     inkscape:snap-grids="false"
     inkscape:snap-object-midpoints="true"
     inkscape:snap-bbox-midpoints="false"
     units="in"
     fit-margin-top="0"
     fit-margin-left="0"
     fit-margin-right="0"
     fit-margin-bottom="0">
    <inkscape:grid
       type="xygrid"
       id="grid4241"
       originx="-150.49376"
       originy="-120.00005" />
  </sodipodi:namedview>
  <metadata
     id="metadata4238">
    <rdf:RDF>
      <cc:Work
         rdf:about="">
        <dc:format>image/svg+xml</dc:format>
        <dc:type
           rdf:resource="http://purl.org/dc/dcmitype/StillImage" />
        <dc:title></dc:title>
      </cc:Work>
    </rdf:RDF>
  </metadata>
  <g
     inkscape:groupmode="layer"
     id="layer2"
     inkscape:label="Layer 0"
     transform="translate(-150.49379,175.90575)"
     style="display:inline">
    <rect
       style="fill:#784421;fill-opacity:1;stroke-width:0;stroke-miterlimit:4;stroke-dasharray:none"
       id="rect4478"
       width="1200.0002"
       height="800.00012"
       x="150.49367"
       y="-175.90575"
       inkscape:export-xdpi="90"
       inkscape:export-ydpi="90" />
  </g>
  <g
     inkscape:label="Layer 1"
     inkscape:groupmode="layer"
     id="layer1"
     transform="translate(-150.49379,-132.36205)"
     style="display:inline">
    <g
       id="g4258"
       transform="translate(-136.33115,-81.506296)">
      <g
         transform="matrix(-0.12,0,0,0.12,1157.5705,523.48715)"
         id="g4365">
        <path
           style="fill:none;stroke:#000000;stroke-width:9.17640018;stroke-linecap:round;stroke-linejoin:round;stroke-miterlimit:10"
           inkscape:connector-curvature="0"
           stroke-miterlimit="10"
           d="m 1468.738,528.213 c -0.24,-0.872 -0.415,-1.768 -0.497,-2.689 -0.542,-9.158 0.413,-18.399 -0.973,-27.502 -0.817,-5.937 -2.661,-12.205 -7.515,-16.105 2.055,-5.478 9.524,-10.837 11.185,-16.435 0.734,-15.471 1.129,-30.97 1.771,-46.442 0.055,-4.597 0.743,-9.231 -0.174,-13.774 -1.854,-12.223 -3.845,-24.437 -5.598,-36.669 0.211,-3.625 1.321,-7.121 1.945,-10.681 -28.924,-2.193 -58.096,-4.542 -86.194,-12.131 -10.443,1.074 -20.849,2.652 -31.273,3.946 -1.248,3.505 -1.844,8.084 -5.442,10.021 -4.496,0.551 -8.883,-1.211 -13.306,-1.844 -1.037,5.377 -3.845,10.149 -6.607,14.802 -3.34,5.341 -6.589,10.801 -10.562,15.701 -19.041,9.452 -38.33,19.16 -54.499,33.191 -6.506,5.827 -12.719,12.563 -15.508,21.014 -1.56,4.533 -1.028,9.369 -1.129,14.077 0.083,4.23 -0.156,8.479 0.129,12.709 0.789,4.79 3.45,8.993 6.066,12.994 4.478,6.497 9.617,12.526 14.985,18.307 -0.119,2 -0.56,4.331 -2.707,5.139 -6.993,3.212 -15.003,3.221 -22.51,2.202 -6.69,-0.973 -13.673,-3.074 -18.472,-8.094 -1.12,-1.34 -2.78,-2.698 -2.523,-4.643 1.156,-21.381 3.221,-42.725 4.084,-64.116 -9.076,6.69 -17.371,15.26 -21.042,26.162 -3.111,8.635 -1.743,17.931 -2.074,26.905 -0.312,5.056 1.459,9.92 3.707,14.361 3.836,7.47 8.837,14.26 14.031,20.83 0.835,0.899 1.12,2.101 1.441,3.258 -1.953,1.794 -3.831,3.666 -5.75,5.506 l 255.011,0 z"
           id="path4351" />
        <g
           id="g4353">
          <g
             id="g4355">
            <path
               style="fill:none;stroke:#000000;stroke-width:10;stroke-linecap:round;stroke-linejoin:round;stroke-miterlimit:10"
               inkscape:connector-curvature="0"
               stroke-miterlimit="10"
               d="m 2617,563.664 -161.967,1.397 c -55.901,-68.699 -100.84,1.172 -103.324,1.397 l -68.417,-2.792 -20.944,234.574 -40.492,-666.021 -32.115,467.75 -9.774,-36.303 -23.737,-2.792 -23.737,-69.813 -29.321,72.606 -86.569,1.397 c -55.851,-69.813 -106.117,0 -106.117,0 l -60.039,1.397 -22.34,231.781 -41.888,-677.192 -27.926,480.317 -11.17,-34.907 -25.133,0 -23.737,-75.399 -25.133,75.399 -173.138,0 c 1.331,-1.239 1.028,-3.102 1.174,-4.698 -11.103,-9.901 -21.161,-23.207 -21.005,-38.752 2.046,-20.592 4.827,-41.12 8.644,-61.454 2.716,-13.654 5.781,-27.318 10.856,-40.312 3.019,-7.405 6.57,-15.123 13.058,-20.106 2.606,-2.276 6.424,-1.725 9.094,-3.762 13.499,-9.846 26.3,-20.812 37.091,-33.613 13.884,-16.361 24.299,-36.485 25.831,-58.169 1.055,-9.892 -1.156,-19.702 -3.01,-29.355 -5.588,-26.703 -12.746,-53.04 -19.793,-79.385 6.552,-0.431 12.792,3.037 19.335,1.661 11.104,-1.514 22.546,-2.055 33.164,-5.855 8.387,-6.001 13.131,-15.554 17.922,-24.409 1.166,-1.789 1.56,-4.478 -0.275,-5.974 -4.24,-3.836 -9.736,-5.855 -14.884,-8.167 -9.158,-3.854 -18.61,-6.974 -28.006,-10.204 -10.158,-18.353 -27.043,-32.31 -46.102,-40.706 -0.073,-7.222 -0.798,-14.728 -4.286,-21.188 -2.9,-5.359 -8.516,-9.415 -14.737,-9.479 -1.945,3.368 -3.248,7.103 -3.652,10.984 -0.468,3.303 0.01,6.8 -1.367,9.929 -1.762,4.524 -3.533,9.039 -5.24,13.59 -7.8,0.872 -13.517,6.882 -18.178,12.682 -8.341,10.819 -14.581,23.079 -20.372,35.403 -7.185,15.398 -13.37,31.236 -19.325,47.148 -1.606,3.615 -0.789,7.653 -0.991,11.48 -0.312,6.671 1.184,13.223 2.111,19.794 -36.394,23.849 -77.32,42.762 -121.083,46.873 -1.863,2.368 -4.864,3.138 -7.745,3.46 -8.864,1.101 -17.83,0.551 -26.749,0.688 -11.342,-0.073 -22.684,0.138 -34.026,-0.101 -6.662,-1.156 -12.461,-5.01 -18.344,-8.149 -18.665,-10.957 -36.375,-23.455 -54.04,-35.935 -2.377,-1.854 -5.176,-3.248 -7.167,-5.552 -13.131,-19.537 -26.171,-39.165 -40.477,-57.876 -4.166,-5.194 -8.13,-10.718 -13.508,-14.756 -1.376,0.018 -2.762,0.037 -4.184,0.064 -6.405,6.442 -11.269,14.728 -12.333,23.877 -0.477,5.506 -0.468,11.058 -0.293,16.582 -0.046,14.031 6.965,26.924 15.214,37.825 11.544,15.04 25.96,27.557 40.863,39.146 11.727,8.901 23.767,17.444 36.302,25.152 7.626,1.532 15.315,2.863 22.996,4.056 3.569,-1.074 6.946,-2.67 10.443,-3.909 -11.856,11.048 -21.023,24.951 -26.345,40.266 -5.249,14.508 -6.956,30.007 -7.295,45.35 -5.01,16.105 -13.269,31.402 -24.859,43.744 -7.286,7.827 -15.994,14.233 -25.364,19.344 0.679,4.24 2.34,8.433 1.844,12.792 -2.349,23.115 -4.671,46.231 -6.956,69.346 -0.404,5.442 -1.569,10.902 -0.954,16.371 1.047,6.906 6.708,12.018 12.862,14.765 -51.717,0.199 -103.105,2.034 -154.493,1.117 -11.929,-16.518 -31.2,-31.2 -52.305,-30.282 -14.682,0.918 -27.529,9.176 -38.541,19.27 -4.588,4.588 -7.341,10.094 -12.847,12.847 -22.023,-1.835 -44.047,-1.835 -66.07,-3.671 -0.918,0 -1.835,0.918 -1.835,1.835 -5.506,77.999 -14.682,155.081 -20.382,233.387 -0.022,-0.363 0.239,-2.672 0,0 -13.571,-222.375 -27.335,-443.527 -40.492,-666.021 -0.018,0.257 0.094,1.542 0,0 -11.62,156.425 -20.796,311.506 -32.115,467.75 -0.068,-0.251 0.074,-1.08 0,0 -5.199,-11.258 -5.199,-24.105 -9.787,-36.034 -7.341,-1.835 -15.6,-1.835 -22.941,-2.753 -9.176,-22.941 -15.6,-46.8 -24.519,-70.121 -0.713,1.765 2.316,6.811 0,0 -9.434,25.157 -19.528,49.016 -29.622,72.874 -28.447,-0.918 -56.894,1.835 -85.341,0.918 -7.341,-6.423 -12.847,-14.682 -22.023,-20.188 -10.094,-6.423 -20.188,-11.012 -31.2,-11.012 -6.424,0 -12.847,0.918 -18.353,3.671 -12.847,6.423 -25.694,13.765 -33.953,26.612 -0.918,0.918 -2.753,1.835 -3.671,1.835 -19.27,0 -38.541,0 -57.811,0.918 -7.341,77.082 -15.6,154.164 -22.413,231.554 -0.023,-0.372 0.272,-2.825 0,0 C 370.835,575.424 357.07,349.685 343.239,124.28 c -0.015,0.261 0.097,1.567 0,0 -10.027,160.252 -17.368,319.921 -27.926,480.317 -0.087,-0.271 0.065,-1.113 0,0 -4.125,-11.738 -6.878,-23.668 -11.466,-34.679 -8.259,-0.918 -15.6,0.918 -23.859,0 -0.918,0 -1.835,-0.918 -1.835,-1.835 -2.753,-11.012 -6.423,-21.106 -10.094,-32.117 -3.671,-13.765 -7.341,-27.529 -12.786,-41.674 -0.132,0.397 2.215,7.035 0,0 -4.649,9.556 -6.484,19.65 -9.237,28.827 -5.506,15.6 -11.929,31.2 -15.6,46.8 -57.811,0 -115.623,0 -173.434,-0.228"
               id="path4357" />
          </g>
        </g>
      </g>
      <text
         sodipodi:linespacing="125%"
         id="text4405"
         y="513.97198"
         x="810.83521"
         style="font-style:normal;font-variant:normal;font-weight:normal;font-stretch:normal;font-size:45px;line-height:125%;font-family:'DejaVu Serif';-inkscape-font-specification:'DejaVu Serif, Normal';text-align:start;letter-spacing:0px;word-spacing:0px;writing-mode:lr-tb;text-anchor:start;fill:#0c8422;fill-opacity:1;stroke:none;stroke-width:1px;stroke-linecap:butt;stroke-linejoin:miter;stroke-opacity:1"
         xml:space="preserve"><tspan
           id="tspan4409"
           y="513.97198"
           x="810.83521"
           sodipodi:role="line">WeeDog Ubuntu</tspan></text>
      <g
         id="g4239">
        <path
           style="fill:#0c8422;fill-opacity:1;fill-rule:evenodd;stroke:#000000;stroke-width:0.75px;stroke-linecap:butt;stroke-linejoin:miter;stroke-opacity:1"
           d="m 645.00001,512.36212 150,0 -37.5,75 -75,0 z"
           id="path4261-6"
           inkscape:connector-curvature="0" />
        <circle
           style="fill:#dc4814;fill-opacity:1;stroke-width:0;stroke-linecap:round;stroke-miterlimit:4;stroke-dasharray:none"
           id="path4263-1"
           cx="757.5"
           cy="542.36212"
           r="7.5" />
        <circle
           r="7.5"
           cy="542.36212"
           cx="682.5"
           id="circle4265-8"
           style="fill:#000000;stroke-width:0;stroke-linecap:round;stroke-miterlimit:4;stroke-dasharray:none" />
        <path
           inkscape:connector-curvature="0"
           id="path4257-7"
           d="m 757.50001,437.36212 -37.5,75 75,0 z"
           style="fill:#dc4814;fill-opacity:1;fill-rule:evenodd;stroke:#000000;stroke-width:0.75px;stroke-linecap:butt;stroke-linejoin:miter;stroke-opacity:1" />
        <ellipse
           cy="489.82242"
           cx="745.29694"
           id="circle4654"
           style="fill:#0c8422;fill-opacity:1;stroke-width:0;stroke-linecap:round;stroke-miterlimit:4;stroke-dasharray:none"
           rx="2.9926353"
           ry="3.0890341" />
        <ellipse
           ry="3.0890341"
           rx="2.9926353"
           style="fill:#0c8422;fill-opacity:1;stroke-width:0;stroke-linecap:round;stroke-miterlimit:4;stroke-dasharray:none"
           id="ellipse4660"
           cx="763.57568"
           cy="500.49924" />
        <ellipse
           cy="479.19131"
           cx="763.67084"
           id="ellipse4662"
           style="fill:#0c8422;fill-opacity:1;stroke-width:0;stroke-linecap:round;stroke-miterlimit:4;stroke-dasharray:none"
           rx="2.9926353"
           ry="3.0890341" />
        <path
           style="fill:none;fill-rule:evenodd;stroke:#000000;stroke-width:2.11949992;stroke-linecap:butt;stroke-linejoin:miter;stroke-miterlimit:4;stroke-dasharray:none;stroke-opacity:1"
           d="m 747.48193,487.01985 4.76808,-6.15773 7.87329,-1.18793"
           id="path4672"
           inkscape:connector-curvature="0" />
        <path
           style="fill:none;fill-rule:evenodd;stroke:#000000;stroke-width:2.11949992;stroke-linecap:butt;stroke-linejoin:miter;stroke-miterlimit:4;stroke-dasharray:none;stroke-opacity:1"
           d="m 764.86381,482.45017 3.1362,7.41195 -3.1362,7.36478"
           id="path4674"
           inkscape:connector-curvature="0" />
        <path
           style="fill:none;fill-rule:evenodd;stroke:#000000;stroke-width:2.11949992;stroke-linecap:butt;stroke-linejoin:miter;stroke-miterlimit:4;stroke-dasharray:none;stroke-opacity:1"
           d="m 747.43922,492.48639 4.81079,6.37573 7.87329,0.96993"
           id="path4676"
           inkscape:connector-curvature="0" />
        <path
           style="fill:#dc4814;fill-opacity:1;fill-rule:evenodd;stroke:#000000;stroke-width:0.75px;stroke-linecap:butt;stroke-linejoin:miter;stroke-opacity:1"
           d="m 682.50001,587.36211 75,0 -37.5,75 z"
           id="path4259-9"
           inkscape:connector-curvature="0" />
        <path
           style="fill:#dc4814;fill-opacity:1;fill-rule:evenodd;stroke:#000000;stroke-width:0.75px;stroke-linecap:butt;stroke-linejoin:miter;stroke-opacity:1"
           d="m 645.00001,512.36212 -37.5,75 75,0 z"
           id="path4255-2"
           inkscape:connector-curvature="0" />
        <circle
           r="7.5"
           cy="609.86212"
           cx="720"
           id="circle4192"
           style="fill:#000000;stroke-width:0;stroke-linecap:round;stroke-miterlimit:4;stroke-dasharray:none" />
      </g>
    </g>
  </g>
  <g
     inkscape:groupmode="layer"
     id="layer3"
     inkscape:label="Layer 2"
     style="display:none"
     transform="translate(-150.49379,-80.000014)">
    <g
       style="display:inline"
       id="g4254"
       transform="translate(-302.50005,-222.36206)"
       inkscape:export-xdpi="88.800003"
       inkscape:export-ydpi="88.800003">
      <path
         style="fill:#0c8422;fill-opacity:1;fill-rule:evenodd;stroke:#000000;stroke-width:0.75px;stroke-linecap:butt;stroke-linejoin:miter;stroke-opacity:1"
         d="m 645.00001,512.36212 150,0 -37.5,75 -75,0 z"
         id="path4256"
         inkscape:connector-curvature="0" />
      <circle
         style="fill:#dc4814;fill-opacity:1;stroke-width:0;stroke-linecap:round;stroke-miterlimit:4;stroke-dasharray:none"
         id="circle4258"
         cx="757.5"
         cy="542.36212"
         r="7.5" />
      <circle
         r="7.5"
         cy="542.36212"
         cx="682.5"
         id="circle4260"
         style="fill:#000000;stroke-width:0;stroke-linecap:round;stroke-miterlimit:4;stroke-dasharray:none" />
      <path
         inkscape:connector-curvature="0"
         id="path4262"
         d="m 757.50001,437.36212 -37.5,75 75,0 z"
         style="fill:#dc4814;fill-opacity:1;fill-rule:evenodd;stroke:#000000;stroke-width:0.75px;stroke-linecap:butt;stroke-linejoin:miter;stroke-opacity:1" />
      <ellipse
         cy="489.82242"
         cx="745.29694"
         id="ellipse4264"
         style="fill:#0c8422;fill-opacity:1;stroke-width:0;stroke-linecap:round;stroke-miterlimit:4;stroke-dasharray:none"
         rx="2.9926353"
         ry="3.0890341" />
      <ellipse
         ry="3.0890341"
         rx="2.9926353"
         style="fill:#0c8422;fill-opacity:1;stroke-width:0;stroke-linecap:round;stroke-miterlimit:4;stroke-dasharray:none"
         id="ellipse4266"
         cx="763.57568"
         cy="500.49924" />
      <ellipse
         cy="479.19131"
         cx="763.67084"
         id="ellipse4268"
         style="fill:#0c8422;fill-opacity:1;stroke-width:0;stroke-linecap:round;stroke-miterlimit:4;stroke-dasharray:none"
         rx="2.9926353"
         ry="3.0890341" />
      <path
         style="fill:none;fill-rule:evenodd;stroke:#000000;stroke-width:2.11949992;stroke-linecap:butt;stroke-linejoin:miter;stroke-miterlimit:4;stroke-dasharray:none;stroke-opacity:1"
         d="m 747.48193,487.01985 4.76808,-6.15773 7.87329,-1.18793"
         id="path4270"
         inkscape:connector-curvature="0" />
      <path
         style="fill:none;fill-rule:evenodd;stroke:#000000;stroke-width:2.11949992;stroke-linecap:butt;stroke-linejoin:miter;stroke-miterlimit:4;stroke-dasharray:none;stroke-opacity:1"
         d="m 764.86381,482.45017 3.1362,7.41195 -3.1362,7.36478"
         id="path4272"
         inkscape:connector-curvature="0" />
      <path
         style="fill:none;fill-rule:evenodd;stroke:#000000;stroke-width:2.11949992;stroke-linecap:butt;stroke-linejoin:miter;stroke-miterlimit:4;stroke-dasharray:none;stroke-opacity:1"
         d="m 747.43922,492.48639 4.81079,6.37573 7.87329,0.96993"
         id="path4274"
         inkscape:connector-curvature="0" />
      <path
         style="fill:#dc4814;fill-opacity:1;fill-rule:evenodd;stroke:#000000;stroke-width:0.75px;stroke-linecap:butt;stroke-linejoin:miter;stroke-opacity:1"
         d="m 682.50001,587.36211 75,0 -37.5,75 z"
         id="path4276"
         inkscape:connector-curvature="0" />
      <path
         style="fill:#dc4814;fill-opacity:1;fill-rule:evenodd;stroke:#000000;stroke-width:0.75px;stroke-linecap:butt;stroke-linejoin:miter;stroke-opacity:1"
         d="m 645.00001,512.36212 -37.5,75 75,0 z"
         id="path4278"
         inkscape:connector-curvature="0" />
      <circle
         r="7.5"
         cy="609.86212"
         cx="720"
         id="circle4280"
         style="fill:#000000;stroke-width:0;stroke-linecap:round;stroke-miterlimit:4;stroke-dasharray:none" />
    </g>
  </g>
</svg>
